(module Maxim_WLCSP-32_3.0x2.17mm_Layout7x5_P0.4mm_Ball0.27mm_Pad0.25mm (layer F.Cu) (tedit 6299AA9F)
  (descr "WLCSP-32, 2.168x2.998mm, 35 Ball, 7x5 Layout, 0.4mm Pitch, https://pdfserv.maximintegrated.com/package_dwgs/21-100489.PDF")
  (tags "CSP 35 0.4")
  (attr smd)
  (solder_mask_margin 0.02)
  (fp_text reference REF** (at 0 -2.084) (layer F.SilkS)
    (effects (font (size 1 1) (thickness 0.15)))
  )
  (fp_text value Maxim_WLCSP-32_3.0x2.17mm_Layout7x5_P0.4mm_Ball0.27mm_Pad0.25mm (at 0 2.084) (layer F.Fab)
    (effects (font (size 1 1) (thickness 0.15)))
  )
  (fp_line (start 1.499 1.084) (end -1.499 1.084) (layer F.Fab) (width 0.1))
  (fp_line (start -1.499 1.084) (end -1.499 -0.542) (layer F.Fab) (width 0.1))
  (fp_line (start -1.499 -0.542) (end -0.957 -1.084) (layer F.Fab) (width 0.1))
  (fp_line (start -0.957 -1.084) (end 1.499 -1.084) (layer F.Fab) (width 0.1))
  (fp_line (start 1.499 -1.084) (end 1.499 1.084) (layer F.Fab) (width 0.1))
  (fp_line (start -2.5 -2.09) (end -2.5 2.09) (layer F.CrtYd) (width 0.05))
  (fp_line (start -2.5 2.09) (end 2.5 2.09) (layer F.CrtYd) (width 0.05))
  (fp_line (start 2.5 2.09) (end 2.5 -2.09) (layer F.CrtYd) (width 0.05))
  (fp_line (start 2.5 -2.09) (end -2.5 -2.09) (layer F.CrtYd) (width 0.05))
  (fp_line (start -1.067 -1.194) (end 1.609 -1.194) (layer F.SilkS) (width 0.12))
  (fp_line (start 1.609 -1.194) (end 1.609 1.194) (layer F.SilkS) (width 0.12))
  (fp_line (start 1.609 1.194) (end -1.609 1.194) (layer F.SilkS) (width 0.12))
  (fp_line (start -1.609 1.194) (end -1.609 -0.652) (layer F.SilkS) (width 0.12))
  (pad A1 smd circle (at -1.2 -0.8) (size 0.25 0.25) (layers F.Cu F.Mask F.Paste))
  (pad A2 smd circle (at -0.8 -0.8) (size 0.25 0.25) (layers F.Cu F.Mask F.Paste))
  (pad A3 smd circle (at -0.4 -0.8) (size 0.25 0.25) (layers F.Cu F.Mask F.Paste))
  (pad A4 smd circle (at 0 -0.8) (size 0.25 0.25) (layers F.Cu F.Mask F.Paste))
  (pad A5 smd circle (at 0.4 -0.8) (size 0.25 0.25) (layers F.Cu F.Mask F.Paste))
  (pad A6 smd circle (at 0.8 -0.8) (size 0.25 0.25) (layers F.Cu F.Mask F.Paste))
  (pad A7 smd circle (at 1.2 -0.8) (size 0.25 0.25) (layers F.Cu F.Mask F.Paste))
  (pad B1 smd circle (at -1.2 -0.4) (size 0.25 0.25) (layers F.Cu F.Mask F.Paste))
  (pad B2 smd circle (at -0.8 -0.4) (size 0.25 0.25) (layers F.Cu F.Mask F.Paste))
  (pad B3 smd circle (at -0.4 -0.4) (size 0.25 0.25) (layers F.Cu F.Mask F.Paste))
  (pad B4 smd circle (at 0 -0.4) (size 0.25 0.25) (layers F.Cu F.Mask F.Paste))
  (pad B5 smd circle (at 0.4 -0.4) (size 0.25 0.25) (layers F.Cu F.Mask F.Paste))
  (pad B6 smd circle (at 0.8 -0.4) (size 0.25 0.25) (layers F.Cu F.Mask F.Paste))
  (pad B7 smd circle (at 1.2 -0.4) (size 0.25 0.25) (layers F.Cu F.Mask F.Paste))
  (pad C1 smd circle (at -1.2 0) (size 0.25 0.25) (layers F.Cu F.Mask F.Paste))
  (pad C2 smd circle (at -0.8 0) (size 0.25 0.25) (layers F.Cu F.Mask F.Paste))
  (pad C3 smd circle (at -0.4 0) (size 0.25 0.25) (layers F.Cu F.Mask F.Paste))
  (pad C4 smd circle (at 0 0) (size 0.25 0.25) (layers F.Cu F.Mask F.Paste))
  (pad C5 smd circle (at 0.4 0) (size 0.25 0.25) (layers F.Cu F.Mask F.Paste))
  (pad C6 smd circle (at 0.8 0) (size 0.25 0.25) (layers F.Cu F.Mask F.Paste))
  (pad C7 smd circle (at 1.2 0) (size 0.25 0.25) (layers F.Cu F.Mask F.Paste))
  (pad D1 smd circle (at -1.2 0.4) (size 0.25 0.25) (layers F.Cu F.Mask F.Paste))
  (pad D2 smd circle (at -0.8 0.4) (size 0.25 0.25) (layers F.Cu F.Mask F.Paste))
  (pad D3 smd circle (at -0.4 0.4) (size 0.25 0.25) (layers F.Cu F.Mask F.Paste))
  (pad D4 smd circle (at 0 0.4) (size 0.25 0.25) (layers F.Cu F.Mask F.Paste))
  (pad D5 smd circle (at 0.4 0.4) (size 0.25 0.25) (layers F.Cu F.Mask F.Paste))
  (pad D6 smd circle (at 0.8 0.4) (size 0.25 0.25) (layers F.Cu F.Mask F.Paste))
  (pad D7 smd circle (at 1.2 0.4) (size 0.25 0.25) (layers F.Cu F.Mask F.Paste))
  (pad E1 smd circle (at -1.2 0.8) (size 0.25 0.25) (layers F.Cu F.Mask F.Paste))
  (pad E2 smd circle (at -0.8 0.8) (size 0.25 0.25) (layers F.Cu F.Mask F.Paste))
  (pad E3 smd circle (at -0.4 0.8) (size 0.25 0.25) (layers F.Cu F.Mask F.Paste))
  (pad E4 smd circle (at 0 0.8) (size 0.25 0.25) (layers F.Cu F.Mask F.Paste))
  (pad E5 smd circle (at 0.4 0.8) (size 0.25 0.25) (layers F.Cu F.Mask F.Paste))
  (pad E6 smd circle (at 0.8 0.8) (size 0.25 0.25) (layers F.Cu F.Mask F.Paste))
  (pad E7 smd circle (at 1.2 0.8) (size 0.25 0.25) (layers F.Cu F.Mask F.Paste))
  (fp_text user ${REFERENCE} (at 0 0) (layer F.Fab)
    (effects (font (size 0.7 0.7) (thickness 0.105)))
  )
  (model ${KICAD6_3DMODEL_DIR}/Package_CSP.3dshapes/Maxim_WLCSP-32_3.0x2.17mm_Layout7x5_P0.4mm_Ball0.27mm_Pad0.25mm.wrl
    (at (xyz 0 0 0))
    (scale (xyz 1 1 1))
    (rotate (xyz 0 0 0))
  )
)
